<?xml version="1.0" encoding="utf-8"?>
<!-- Generator: Adobe Illustrator 25.3.1, SVG Export Plug-In . SVG Version: 6.00 Build 0)  -->
<svg version="1.1" id="圖層_1" xmlns="http://www.w3.org/2000/svg" xmlns:xlink="http://www.w3.org/1999/xlink" x="0px" y="0px"
	 viewBox="0 0 50 50" style="enable-background:new 0 0 50 50;" xml:space="preserve">
<style type="text/css">
	.st0{fill:#FFFFFF;}
</style>
<path class="st0" d="M49.7,20.4C49.1,9.9,38.3,1.6,25,1.6c-13.7,0-24.8,8.8-24.8,19.7c0,10,9.4,18.2,21.5,19.5
	c0.7,0.1,1.3,0.7,1.2,1.5l-0.5,4.6c-0.1,1.1,1,1.8,1.9,1.4c10.2-4.9,16.4-10,20-14.4c0.7-0.8,2.8-3.8,3.3-4.6
	c0.9-1.7,1.6-3.5,1.9-5.4c0.1-0.6,0.2-1.1,0.2-1.5C49.8,21.6,49.7,20.7,49.7,20.4z M15.2,27.8h-5.1c-0.7,0-1.3-0.6-1.3-1.3V17
	c0-0.7,0.6-1.3,1.3-1.3s1.3,0.6,1.3,1.3v8.3h3.8c0.7,0,1.3,0.6,1.3,1.3C16.4,27.2,15.9,27.8,15.2,27.8z M20.2,26.8c0,0.5-0.4,1-1,1
	h-0.6c-0.5,0-1-0.4-1-1V16.7c0-0.5,0.4-1,1-1h0.6c0.5,0,1,0.4,1,1V26.8z M32,26.5c0,0.7-0.6,1.3-1.3,1.3c-0.3,0-0.6-0.1-0.9-0.4
	c-0.1-0.1-5.2-6.7-5.2-6.7v5.8c0,0.7-0.6,1.3-1.3,1.3c-0.7,0-1.3-0.6-1.3-1.3V17c0-0.7,0.5-1.3,1.2-1.3c0.4,0,0.8,0.2,1,0.4
	c0.1,0.1,5.1,6.7,5.1,6.7V17c0-0.7,0.6-1.3,1.3-1.3c0.7,0,1.3,0.6,1.3,1.3L32,26.5L32,26.5L32,26.5L32,26.5z M40.2,20.5
	c0.7,0,1.3,0.6,1.3,1.3c0,0.7-0.6,1.3-1.3,1.3h-3.8v2.2h3.8c0.7,0,1.3,0.6,1.3,1.3c0,0.7-0.6,1.3-1.3,1.3h-5.1
	c-0.7,0-1.3-0.6-1.3-1.3V17c0-0.7,0.6-1.3,1.3-1.3h5.1c0.7,0,1.3,0.6,1.3,1.3s-0.6,1.3-1.3,1.3h-3.8v2.2H40.2L40.2,20.5z"/>
</svg>
